2.298332285308837868e+02
4.837420901870727334e+02
2.075425586700439595e+01
3.936811954498291044e+01
1.650210590362548757e+01
1.508211236953735401e+01
1.348287214279174862e+01
1.311869205474853572e+01
1.241228298187255774e+01
1.176205572128295884e+01
1.161637458801269496e+01
1.111865816116332972e+01
1.143543142318725536e+01
1.092213531494140710e+01
1.054059179306030281e+01
1.154348407745361271e+01
9.746018238067627237e+00
1.026101915359497063e+01
9.290213871002197976e+00
9.642171993255615803e+00
9.628172187805175142e+00
9.844573173522949361e+00
8.953915443420410014e+00
9.002974023818969940e+00
8.701898460388184375e+00
8.694081869125366069e+00
8.526706800460814861e+00
8.613024282455445046e+00
8.537490530014038015e+00
8.971883220672607351e+00
8.535851602554322071e+00
8.377042922973632955e+00
8.563189907073974538e+00
8.362800750732422017e+00
8.288269243240357298e+00
8.412544498443603302e+00
8.326596956253052184e+00
8.392202968597411328e+00
8.229769725799560121e+00
8.221733417510986186e+00
8.154542484283446413e+00
8.148992233276366903e+00
8.064253807067871094e+00
8.216051807403564666e+00
8.226069297790527202e+00
8.128312969207764027e+00
8.006077957153319602e+00
8.034559431076049307e+00
7.972564058303833079e+00
8.063697748184203817e+00
