4.797403480529785469e+01
2.062916347503661996e+01
1.683575209045410190e+02
1.907783847808837763e+01
1.884365056991576992e+01
1.399719318389892564e+01
1.297586509704589908e+01
1.214984039306640540e+01
1.190608051300048764e+01
1.222665342330932603e+01
1.102649566650390689e+01
1.072703136444091854e+01
1.060712306976318331e+01
9.989113311767578551e+00
1.041896047592163121e+01
9.423826732635497194e+00
9.662631225585936789e+00
9.508504819869994407e+00
9.167621431350708505e+00
9.101169414520263956e+00
9.069385108947754404e+00
1.110993061065673793e+01
9.795157880783081694e+00
9.702898845672606853e+00
8.641703481674193554e+00
9.141972961425780753e+00
8.439263935089110547e+00
8.920892734527587464e+00
8.605822257995605185e+00
8.431663284301757599e+00
8.731778411865233736e+00
8.316066875457764240e+00
8.287574701309203817e+00
8.569504251480102752e+00
8.618192396163941282e+00
8.267795209884644336e+00
8.626756620407103782e+00
8.509823675155638867e+00
8.325136489868164347e+00
8.117923288345336275e+00
8.074190673828125497e+00
8.047247533798218555e+00
7.957275762557983079e+00
8.079167833328247283e+00
7.996953773498534979e+00
7.995942516326904226e+00
8.065572195053100302e+00
7.895772428512572993e+00
7.739798011779785547e+00
7.912799053192138388e+00
