4.863144172286987441e+02
3.335971130371093807e+01
1.895559501647949219e+01
1.681763102531433063e+01
1.577770549774169950e+01
1.461483773231506333e+01
1.384800127983093176e+01
1.311249572753906278e+01
1.243607359886169483e+01
1.185158336639404375e+01
1.137064241409301779e+01
1.092750538825988826e+01
1.059738734245300229e+01
1.016898355484008754e+01
9.936320266723633665e+00
9.818949012756347017e+00
9.505185232162475018e+00
9.407176122665404705e+00
9.149507188796997426e+00
9.113118495941161967e+00
8.936426453590392782e+00
8.746359825134277344e+00
8.717020359039306499e+00
8.618471603393555114e+00
8.557353162765503285e+00
8.531292238235472780e+00
8.468670463562011363e+00
8.356272883415222452e+00
8.365706782341003844e+00
8.279104318618774272e+00
8.214198164939880087e+00
8.280860371589660929e+00
7.875488824844360636e+00
7.770982666015624929e+00
7.775238289833068528e+00
7.659099197387694957e+00
7.739277224540710876e+00
7.723511404991150187e+00
7.646723966598511169e+00
7.602805881500244389e+00
7.459663858413696502e+00
7.407646498680114711e+00
7.386645298004150817e+00
7.399536561965942560e+00
7.328695993423462340e+00
7.284439072608948074e+00
7.151544160842895792e+00
7.193203349113463929e+00
7.147163939476013361e+00
7.086175160408020091e+00
